%YAML 1.1
%TAG !u! tag:unity3d.com,2011:
--- !u!114 &11400000
MonoBehaviour:
  m_ObjectHideFlags: 0
  m_CorrespondingSourceObject: {fileID: 0}
  m_PrefabInstance: {fileID: 0}
  m_PrefabAsset: {fileID: 0}
  m_GameObject: {fileID: 0}
  m_Enabled: 1
  m_EditorHideFlags: 0
  m_Script: {fileID: 11500000, guid: be0ff784e60ef924fb5dac02ea145380, type: 3}
  m_Name: Embankment
  m_EditorClassIdentifier: 
  XmlFilePath: CSSpecSub/Standard/Embankment
  inspectorDoSave: 0
  color:
    serializedVersion: 2
    rgba: 4278795571
  generateNormals: 1
  positions:
  - {x: -10, y: -3}
  - {x: -3, y: -0.699}
  - {x: 3, y: -0.7}
  - {x: 10, y: -3}
  lineIndices: 000001000100020002000300
  normals:
  - {x: -0.3122758, y: 0.9499915}
  - {x: -0.15605457, y: 0.97499573}
  - {x: 0.15615997, y: 0.9750159}
  - {x: 0.31215328, y: 0.9500317}
