%YAML 1.1
%TAG !u! tag:unity3d.com,2011:
--- !u!114 &11400000
MonoBehaviour:
  m_ObjectHideFlags: 0
  m_CorrespondingSourceObject: {fileID: 0}
  m_PrefabInstance: {fileID: 0}
  m_PrefabAsset: {fileID: 0}
  m_GameObject: {fileID: 0}
  m_Enabled: 1
  m_EditorHideFlags: 0
  m_Script: {fileID: 11500000, guid: edd9507953d33fd4082d71256ab27b82, type: 3}
  m_Name: WoodenSleeper
  m_EditorClassIdentifier: Assembly-CSharp:Curves.CrossSectionExtrusion:CrossSectionCollection/PItem
  distance: 1
  offset: {x: 0, y: -0.375, z: 0}
  scale: {x: 2.81, y: 0.13, z: 0.19}
  rotation: {x: 0, y: 0, z: 0}
  lockRoll: 1
  romModelPath: meshes/unit_cube
  mesh: {fileID: 10202, guid: 0000000000000000e000000000000000, type: 0}
  color: {r: 0.3529412, g: 0.16862746, b: 0.105882354, a: 0}
  forceColor: 1
  vertices:
  - {x: 0.5, y: -0.5, z: 0.5}
  - {x: -0.5, y: -0.5, z: 0.5}
  - {x: 0.5, y: 0.5, z: 0.5}
  - {x: -0.5, y: 0.5, z: 0.5}
  - {x: 0.5, y: 0.5, z: -0.5}
  - {x: -0.5, y: 0.5, z: -0.5}
  - {x: 0.5, y: -0.5, z: -0.5}
  - {x: -0.5, y: -0.5, z: -0.5}
  - {x: 0.5, y: 0.5, z: 0.5}
  - {x: -0.5, y: 0.5, z: 0.5}
  - {x: 0.5, y: 0.5, z: -0.5}
  - {x: -0.5, y: 0.5, z: -0.5}
  - {x: 0.5, y: -0.5, z: -0.5}
  - {x: 0.5, y: -0.5, z: 0.5}
  - {x: -0.5, y: -0.5, z: 0.5}
  - {x: -0.5, y: -0.5, z: -0.5}
  - {x: -0.5, y: -0.5, z: 0.5}
  - {x: -0.5, y: 0.5, z: 0.5}
  - {x: -0.5, y: 0.5, z: -0.5}
  - {x: -0.5, y: -0.5, z: -0.5}
  - {x: 0.5, y: -0.5, z: -0.5}
  - {x: 0.5, y: 0.5, z: -0.5}
  - {x: 0.5, y: 0.5, z: 0.5}
  - {x: 0.5, y: -0.5, z: 0.5}
  normals:
  - {x: 0, y: 0, z: 1}
  - {x: 0, y: 0, z: 1}
  - {x: 0, y: 0, z: 1}
  - {x: 0, y: 0, z: 1}
  - {x: 0, y: 1, z: 0}
  - {x: 0, y: 1, z: 0}
  - {x: 0, y: 0, z: -1}
  - {x: 0, y: 0, z: -1}
  - {x: 0, y: 1, z: 0}
  - {x: 0, y: 1, z: 0}
  - {x: 0, y: 0, z: -1}
  - {x: 0, y: 0, z: -1}
  - {x: 0, y: -1, z: 0}
  - {x: 0, y: -1, z: 0}
  - {x: 0, y: -1, z: 0}
  - {x: 0, y: -1, z: 0}
  - {x: -1, y: 0, z: 0}
  - {x: -1, y: 0, z: 0}
  - {x: -1, y: 0, z: 0}
  - {x: -1, y: 0, z: 0}
  - {x: 1, y: 0, z: 0}
  - {x: 1, y: 0, z: 0}
  - {x: 1, y: 0, z: 0}
  - {x: 1, y: 0, z: 0}
  indices: 0000000002000000030000000000000003000000010000000800000004000000050000000800000005000000090000000a00000006000000070000000a000000070000000b0000000c0000000d0000000e0000000c0000000e0000000f000000100000001100000012000000100000001200000013000000140000001500000016000000140000001600000017000000
