%YAML 1.1
%TAG !u! tag:unity3d.com,2011:
--- !u!114 &11400000
MonoBehaviour:
  m_ObjectHideFlags: 0
  m_CorrespondingSourceObject: {fileID: 0}
  m_PrefabInstance: {fileID: 0}
  m_PrefabAsset: {fileID: 0}
  m_GameObject: {fileID: 0}
  m_Enabled: 1
  m_EditorHideFlags: 0
  m_Script: {fileID: 11500000, guid: fde958821d4fbe444ac8f2edd5173279, type: 3}
  m_Name: ScriptableObjectDB
  m_EditorClassIdentifier: 
  records:
  - cf54e0ad8b4b091498e8281ea5896ac8
  - eb8c9c58a46c24d4dab2ee4219afee3f
